{
  "apps": [
    {
      "name": "Demo",
      "script": "start.js",
      "node_args": [],
      "log_date_format": "YYYY-MM-DD HH:mm Z",
      "exec_interpreter": "",
      "exec_mode": "fork",
	  "autorestart": false,
	  "watch": ["server"],
	  "ignore_watch" : ["node_modules", "public"],
	  "watch_options": {
	    "followSymlinks": false
	  }
    }
  ]
}
